GLM binomial DBCA - Phomopsis en frutilla
…
Cuatro bloques (bk, j = 1, …, 4)

Ocho tratamientos: control no tratado + 7 fungicidas (trt, i = 1, …, 8) aleatorizados dentro de cada bloque

Variable respuesta (Y): Numero de foliolos enfermos

n Tamaño de la muestra

Incidencia por parcela = y/n

Acondicionamiento

phom_raw  

# A tibble: 32 × 4
     trt    bk     y     n
   <int> <int> <int> <int>
 1     1     1    40    75
 2     1     2    26    75
 3     1     3    37    75
 4     1     4    28    75
 5     2     3    12    75
 6     2     2    21    75
 7     2     1    26    75
 8     2     4    25    75
 9     3     1    19    75
10     3     2     5    75
# ℹ 22 more rows

# Factorizamos nuestros variables independientes (predictoras) y calculamos la incidencia en proporción 

phom_dat <- phom_raw %>% 
  mutate_at(vars(trt, bk), as.factor) %>% 
  mutate(inc=y/n) %>% 
  arrange(trt)
phom_dat

# A tibble: 32 × 5
   trt   bk        y     n    inc
   <fct> <fct> <int> <int>  <dbl>
 1 1     1        40    75 0.533 
 2 1     2        26    75 0.347 
 3 1     3        37    75 0.493 
 4 1     4        28    75 0.373 
 5 2     3        12    75 0.16  
 6 2     2        21    75 0.28  
 7 2     1        26    75 0.347 
 8 2     4        25    75 0.333 
 9 3     1        19    75 0.253 
10 3     2         5    75 0.0667
# ℹ 22 more rows
…
